%YAML 1.1
%TAG !u! tag:unity3d.com,2011:
--- !u!114 &11400000
MonoBehaviour:
  m_ObjectHideFlags: 0
  m_CorrespondingSourceObject: {fileID: 0}
  m_PrefabInstance: {fileID: 0}
  m_PrefabAsset: {fileID: 0}
  m_GameObject: {fileID: 0}
  m_Enabled: 1
  m_EditorHideFlags: 0
  m_Script: {fileID: 11500000, guid: 9d1514134bc4fbd41bb739b1b9a49231, type: 3}
  m_Name: Spike_Sewer_Left
  m_EditorClassIdentifier: 
  m_DefaultSprite: {fileID: -7029366254700123014, guid: a62e0cf013492434ba615a95672e1dc2,
    type: 3}
  m_DefaultGameObject: {fileID: 0}
  m_DefaultColliderType: 1
  m_TilingRules:
  - m_Id: 0
    m_Sprites:
    - {fileID: -7029366254700123014, guid: a62e0cf013492434ba615a95672e1dc2, type: 3}
    m_GameObject: {fileID: 0}
    m_AnimationSpeed: 1
    m_PerlinScale: 0.5
    m_Output: 0
    m_ColliderType: 1
    m_RandomTransform: 0
    m_Neighbors: 0100000001000000
    m_NeighborPositions:
    - {x: 0, y: 1, z: 0}
    - {x: 0, y: -1, z: 0}
    m_RuleTransform: 0
  - m_Id: 1
    m_Sprites:
    - {fileID: 3864725246018930214, guid: a62e0cf013492434ba615a95672e1dc2, type: 3}
    m_GameObject: {fileID: 0}
    m_AnimationSpeed: 1
    m_PerlinScale: 0.5
    m_Output: 0
    m_ColliderType: 1
    m_RandomTransform: 0
    m_Neighbors: 0200000001000000
    m_NeighborPositions:
    - {x: 0, y: 1, z: 0}
    - {x: 0, y: -1, z: 0}
    m_RuleTransform: 0
  - m_Id: 2
    m_Sprites:
    - {fileID: -4029864248980731509, guid: a62e0cf013492434ba615a95672e1dc2, type: 3}
    m_GameObject: {fileID: 0}
    m_AnimationSpeed: 1
    m_PerlinScale: 0.5
    m_Output: 0
    m_ColliderType: 1
    m_RandomTransform: 0
    m_Neighbors: 0100000002000000
    m_NeighborPositions:
    - {x: 0, y: 1, z: 0}
    - {x: 0, y: -1, z: 0}
    m_RuleTransform: 0
